The schools of magic plot
…
print(scholastic_data)

#> # A tibble: 64 × 3
#>    school     class    count
#>    <chr>      <chr>    <int>
#>  1 Evocation  Bard         7
#>  2 Evocation  Cleric      12
#>  3 Evocation  Druid       17
#>  4 Evocation  Paladin      3
#>  5 Evocation  Ranger       3
#>  6 Evocation  Sorcerer    30
#>  7 Evocation  Warlock      4
#>  8 Evocation  Wizard      30
#>  9 Abjuration Bard        16
#> 10 Abjuration Cleric      33
#> # ℹ 54 more rows
…
