…
Load target object:

``` r
tar_load("dice_dat")
dice_dat
#> # A tibble: 236 × 8
#>    name           level description dice_txt position dice_num dice_die dice_val
#>    <chr>          <dbl> <chr>       <fct>       <int>    <dbl>    <dbl>    <dbl>
#>  1 Acid Splash        0 "You creat… 1d6             1        1        6      3.5
#>  2 Acid Splash        0 "You creat… 2d6             2        2        6      7  
#>  3 Acid Splash        0 "You creat… 3d6             3        3        6     10.5
#>  4 Acid Splash        0 "You creat… 4d6             4        4        6     14  
#>  5 Alter Self         2 "You alter… 1d6             1        1        6      3.5
#>  6 Animate Objec…     5 "Objects a… 1d4             1        1        4      2.5
#>  7 Animate Objec…     5 "Objects a… 1d6             2        1        6      3.5
#>  8 Animate Objec…     5 "Objects a… 1d12            3        1       12      6.5
#>  9 Animate Objec…     5 "Objects a… 2d6             4        2        6      7  
#> 10 Animate Objec…     5 "Objects a… 2d12            5        2       12     13  
#> # ℹ 226 more rows
```
